<svg width="197" height="197" viewBox="0 0 197 197" fill="#000000" xmlns="http://www.w3.org/2000/svg">
<path d="M0 112.891V36.1574L44.028 112.891H0Z"/>
<path d="M0 146.258V176.993C0 187.507 8.52314 196.03 19.037 196.03H91.7307L63.1729 146.258H0Z"/>
<path d="M101.642 146.258L127.594 191.488C151.391 183.964 171.262 167.604 183.355 146.258H101.642Z"/>
<path d="M194.908 112.891C195.647 108.04 196.03 103.072 196.03 98.015C196.03 43.8828 152.147 0 98.015 0H19.037C18.6037 0 18.1737 0.0144811 17.7475 0.0429857L82.497 112.891H194.908Z"/>
</svg>
